<?xml version="1.0" encoding="utf-8"?>
<!-- Generator: Adobe Illustrator 22.1.0, SVG Export Plug-In . SVG Version: 6.00 Build 0)  -->
<svg version="1.1" id="Layer_1" xmlns="http://www.w3.org/2000/svg" xmlns:xlink="http://www.w3.org/1999/xlink" x="0px" y="0px"
	 viewBox="0 0 320 3625" style="enable-background:new 0 0 320 3625;" xml:space="preserve">
<style type="text/css">
	.st0{fill:#FFFFFF;}
	.st1{filter:url(#Adobe_OpacityMaskFilter);}
	.st2{mask:url(#mask-2_1_);}
	.st3{fill:none;stroke:#383838;stroke-width:0.84;stroke-linecap:round;stroke-linejoin:round;stroke-opacity:6.000000e-02;}
	.st4{fill:none;stroke:url(#Path-12_3_);stroke-width:2;stroke-linecap:round;stroke-linejoin:round;}
	.st5{fill:none;stroke:url(#Path-22_3_);stroke-width:2;stroke-linecap:round;stroke-linejoin:round;}
	.st6{fill:none;stroke:url(#Path-32_2_);stroke-width:2;stroke-linecap:round;stroke-linejoin:round;}
	.st7{fill:none;stroke:url(#Path-114_2_);stroke-width:2;stroke-linecap:round;stroke-linejoin:round;}
	.st8{fill:none;stroke:#F3F3F3;stroke-linecap:round;stroke-linejoin:round;}
	.st9{filter:url(#Adobe_OpacityMaskFilter_1_);}
	.st10{mask:url(#mask-2_2_);}
	.st11{fill:none;stroke:url(#Path-17_2_);stroke-width:2;stroke-linecap:round;stroke-linejoin:round;}
</style>
<title>Background-Mobile</title>
<desc>Created with Sketch.</desc>
<g id="UI">
	<g id="Home-Page">
		<g id="Background-Mobile" transform="translate(0.000000, -1.000000)">
			<g id="Mask">
				<rect id="path-1_1_" y="0.7" class="st0" width="320" height="3625"/>
			</g>
			<defs>
				<filter id="Adobe_OpacityMaskFilter" filterUnits="userSpaceOnUse" x="-578.8" y="-1167.9" width="1638" height="3384.7">
					<feColorMatrix  type="matrix" values="1 0 0 0 0  0 1 0 0 0  0 0 1 0 0  0 0 0 1 0"/>
				</filter>
			</defs>
			<mask maskUnits="userSpaceOnUse" x="-578.8" y="-1167.9" width="1638" height="3384.7" id="mask-2_1_">
				<g class="st1">
					<rect id="path-1_2_" y="0.7" class="st0" width="320" height="3625"/>
				</g>
			</mask>
			<g id="_x23_UI-_x2F_-Maps-_x2F_-Content---01" class="st2">
				<g transform="translate(-582.000000, -1452.000000)">
					
						<g transform="translate(1093.703058, 2700.490451) rotate(-270.000000) translate(-1093.703058, -2700.490451) translate(125.703058, 2152.990451)">
						<polyline id="Path-5" class="st3" points="101.6,775.7 281.5,665.8 301.3,699 357.7,797.5 436.6,927.4 456.8,960.7 
							545.9,1060.6 						"/>
						<path id="Path-6" class="st3" d="M101.6,821L455.3,604l23.3,37.2l40.6-12.9l47-29.5l10.3-43.9c0.4-1.7,1.2-3.4,2.2-4.8
							l17.8-23.7c0.4-0.5,0.9-1.1,1.4-1.5l12.2-11.8c4-3.9,4.5-10.2,1-14.7l-4.8-6.2c-0.8-1.1-1.8-2-3-2.8L519.2,433l-30.1-17.2
							l-9.2-15.9c-0.9-1.5-2.1-2.9-3.5-3.9l-21.1-15.5l9.4-16.2c3.5-6,1.6-13.7-4.2-17.4l-18.1-11.5c-3.1-2-6.9-2.5-10.5-1.5
							l-35.7,10l-27,34.6c-1,1.3-2.3,2.5-3.8,3.3L315.6,410c-0.2,0.1-0.5,0.3-0.7,0.4l-45.7,22.2c-0.6,0.3-1.2,0.5-1.9,0.7
							l-27.7,8.4c-0.2,0.1-0.4,0.1-0.6,0.2l-16.3,4.1c-3.8,0.9-6.9,3.5-8.6,7.1l-1.9,4c-2.1,4.5-6.7,7.4-11.7,7.4h-37.6
							c-4,0-7.8,1.9-10.2,5l-12,15.5c-2.7,3.5-7.1,5.4-11.5,5l-35-3.4c-7.1-0.7-13.4,4.5-14.1,11.6c-0.1,0.7-0.1,1.4,0,2.1"/>
						<polyline id="Path-7" class="st3" points="101.6,863.2 291,749.4 478.6,641.2 						"/>
						<path id="Path-8" class="st3" d="M101.6,911.4l476.7-286.6l52.7-15.5l44,23.3l29.5,55.3l17.2,64.3L698,840.6l99.7-24.4
							c3.7-0.9,6.8-3.4,8.5-6.8l64.8-129.7l41.8-47l34.6-86.4"/>
						<polyline id="Path-9" class="st3" points="101.6,957 233.9,878.4 298.7,837.7 598.9,660.7 						"/>
						<polyline id="Path-11" class="st3" points="101.6,1003.4 313.4,876.6 380.8,833.5 487.2,771.9 623.3,698.7 683.2,649.5 						
							"/>
						
							<linearGradient id="Path-12_3_" gradientUnits="userSpaceOnUse" x1="2241.998" y1="1610.1611" x2="2242.9839" y2="1610.174" gradientTransform="matrix(0 -330.2885 -533.2852 0 858302.125 741386.0625)">
							<stop  offset="0" style="stop-color:#FF594C"/>
							<stop  offset="0.5256" style="stop-color:#FFC563"/>
							<stop  offset="1" style="stop-color:#FF594C"/>
						</linearGradient>
						<polyline id="Path-12" class="st4" points="-373.4,1047.2 -305.8,1003.4 -171.8,925.6 -76.8,863.2 59.1,793.5 83.1,752.4 
							159.9,716.9 						"/>
						<polyline id="Path-13" class="st3" points="180.3,1047.2 190.3,1036.6 323.7,957 455.2,882 555.3,821 588.1,801.7 
							646.6,732.3 						"/>
						<polyline id="Path-15" class="st3" points="101.6,821 222.8,1017.8 290.1,1072.1 						"/>
						<polyline id="Path-16" class="st3" points="0,739.2 190.3,1036.6 209.8,1060.6 						"/>
						<path id="Path-17" class="st3" d="M101.6,957l33.6,63.1c1.2,2.2,2.9,4,5.1,5.2l62.6,35.3"/>
						<polyline id="Path-18" class="st3" points="113.2,683.3 129.8,716.9 147.6,745.3 189.4,808.8 268.7,946.5 290.1,978.5 
							304.2,1003.4 350.3,1060.6 						"/>
						<path id="Path-19" class="st3" d="M145.7,665.8l57.2,92l79.4,138.6l55.4,90.2l30.6-20.1l39.3-20l64.6-42.1l28.5-20.8
							c1.5-1.1,3.2-1.8,4.9-2.2L698,840.6"/>
						<polyline id="Path-20" class="st3" points="101.6,576.7 155.7,616 180.3,641.2 368.2,966.5 368.2,986.6 392.4,1014.3 						
							"/>
						<polyline id="Path-21" class="st3" points="258.7,1047.2 271.6,1032.2 337.6,986.6 						"/>
						
							<linearGradient id="Path-22_3_" gradientUnits="userSpaceOnUse" x1="2241.7668" y1="1612.1636" x2="2242.3792" y2="1612.197" gradientTransform="matrix(0 -387.0246 -305.8929 0 492836.5 868364.75)">
							<stop  offset="0" style="stop-color:#FF594C"/>
							<stop  offset="0.5256" style="stop-color:#FFC563"/>
							<stop  offset="1" style="stop-color:#FF594C"/>
						</linearGradient>
						<path id="Path-22" class="st5" d="M-373.4,576.7l15.3-13.8c3.1-2.8,7.4-3.9,11.4-3l31.5,6.9c2.4,0.5,4.6,1.7,6.3,3.5
							l36.7,36.5l6.9,16.2l37.2,60.4l76.7,130.9l83.8,132.3"/>
						<polyline id="Path" class="st3" points="1455,1078.1 1787.6,793.6 1820.7,777 1863.6,755.6 1883.5,772.2 1878.2,804.3 
							1841.8,826.4 1806.1,810.1 1820.7,781.1 						"/>
						<path id="Path-3" class="st3" d="M1531.2,1078.1l167.9-101"/>
						<path id="Path-10" class="st3" d="M1657.2,906.7l81.8,142.7"/>
						<path id="Path-23" class="st3" d="M1634.3,926l91.5,152.2"/>
						<path id="Path-24" class="st3" d="M1610,946.2l81.2,131.9"/>
						<path id="Path-25" class="st3" d="M1587.4,965.3l71.7,112.8"/>
						<path id="Path-26" class="st3" d="M1566.6,982.8l59.7,95.4"/>
						<path id="Path-27" class="st3" d="M1545.9,1002.1l45.2,76.1"/>
						<path id="Path-28" class="st3" d="M1526.1,1019l42.4,59.1"/>
						<path id="Path-29" class="st3" d="M1505.5,1036.1l31,42"/>
						<path id="Path-30" class="st3" d="M1675.7,890.5l76.8,121.7"/>
						<polyline id="Path-31" class="st3" points="326,650 498.7,947.3 623.5,1085.5 						"/>
						
							<linearGradient id="Path-32_2_" gradientUnits="userSpaceOnUse" x1="2243.5066" y1="1612.0835" x2="2244.4924" y2="1612.0931" gradientTransform="matrix(0 -172.9283 -323.2871 0 521095.9375 388973.25)">
							<stop  offset="0" style="stop-color:#FF594C"/>
							<stop  offset="0.5256" style="stop-color:#FFC563"/>
							<stop  offset="1" style="stop-color:#FF594C"/>
						</linearGradient>
						<path id="Path-32" class="st6" d="M-70,946.8l38.6-23.5c4.3-2.6,10-1.6,13.1,2.4l31.8,40.6l96.7,105.9l59.1-21.8
							c1.7-0.6,3.1-1.7,4.3-3l14.1-17c3.5-4.3,9.8-4.9,14.1-1.3c0.3,0.2,0.5,0.4,0.7,0.7l22.5,22.7c0.1,0.1,0.1,0.2,0.2,0.2l26,28.1
							c3.1,3.4,2.9,8.7-0.4,11.8c-2.4,2.2-5.9,2.8-8.9,1.6"/>
						<polyline id="Path-33" class="st3" points="646.6,1049.5 518.5,908.9 329.5,592.1 						"/>
						<path id="Path-34" class="st3" d="M488.1,929.1l-137.8,120.4"/>
						<path id="Path-35" class="st3" d="M413.5,941.9l79.2,90.8"/>
						<path id="Path-36" class="st3" d="M407.5,946.5l-114.2,103"/>
						<path id="Path-37" class="st3" d="M382.2,969.6l25.3,31"/>
						<path id="Path-38" class="st3" d="M397.2,955.2l81.4,92"/>
						<path id="Path-39" class="st3" d="M350.4,998l26.4,28.3"/>
						<path id="Path-40" class="st3" d="M337.6,1008.8l22.6,31.7"/>
						
							<linearGradient id="Path-114_2_" gradientUnits="userSpaceOnUse" x1="2241.2351" y1="1608.552" x2="2242.2209" y2="1608.5656" gradientTransform="matrix(0 -614.5952 -953.3026 0 1534052.75 1378053.5)">
							<stop  offset="0" style="stop-color:#FF594C"/>
							<stop  offset="0.5256" style="stop-color:#FFC563"/>
							<stop  offset="1" style="stop-color:#FF594C"/>
						</linearGradient>
						<path id="Path-114" class="st7" d="M615.1,538.9l44.7,73.2l322.7,148.4l127.2,68.1l164.5,86.7l212.8-178.4
							c1-0.8,2.1-1.5,3.2-2l28.1-12l26.7-44.2l-11.6-38.1l24.8-116.1c0.2-0.9,0.3-1.8,0.3-2.7v-26c0-1.4,0.2-2.7,0.6-4l8.9-27.6
							c1.7-5.2-1.2-10.8-6.4-12.5c-1-0.3-2-0.5-3-0.5h-8c-3.6,0-7-1.5-9.4-4.1l-4.3-4.5c-2.3-2.4-3.5-5.6-3.5-8.9v-19.1
							c0-4.2-3.4-7.5-7.5-7.5l0,0c-4.6,0-8.8-2.6-10.8-6.8l-12.2-25.1c-0.5-1-1.1-1.9-1.7-2.7l-17-20.1c-1.6-1.8-2.6-4.1-2.9-6.5
							l-2.6-17.9c-0.6-3.8,0.6-7.7,3.3-10.6l9.1-9.9c1.7-1.9,4-3.2,6.5-3.8l11.6-2.8c4.5-1.1,9.2,0.3,12.4,3.7l9.1,9.6
							c0.2,0.2,0.4,0.4,0.6,0.6l20.1,18.7"/>
						<polyline id="Path-115" class="st3" points="928.6,596.1 1157.5,696.9 1170.5,759.3 						"/>
						<path id="Path-124" class="st3" d="M803.9,812c0,0-93.1,81.2-279.4,243.5"/>
						<path id="Path-125" class="st3" d="M870.2,863.2l-223.6,197.4"/>
						<path id="Path-127" class="st3" d="M707.5,899.4l50.1,56.6c0.6,0.6,1.2,1.2,1.9,1.7l8,6.1c3.9,3,5.8,7.8,4.9,12.6l-7,38.4
							c-0.5,2.8-0.1,5.6,1.2,8.1l18.6,37c0.1,0.1,0.2,0.2,0.4,0.1c0.1-0.1,0.2-0.2,0.1-0.4"/>
						<path id="Path-128" class="st3" d="M683.2,921.1l59.8,77.2c2.4,3.2,6.2,5,10.2,5h15.5"/>
						<path id="Path-129" class="st3" d="M652.4,941.9l99.8,113.6"/>
						<polyline id="Path-130" class="st3" points="539.8,876.1 564.7,904.2 712,1060.6 						"/>
						<path id="Path-131" class="st3" d="M582,863.2l70.4,78.7"/>
						<polyline id="Path-132" class="st3" points="634.9,855.9 641.4,882 683.2,921.1 						"/>
						<polyline id="Path-133" class="st3" points="734.7,876.1 598.9,882 445.4,1014.8 						"/>
						<path id="Path-134" class="st3" d="M478.6,1047.2l61.2-53.8"/>
						<polyline id="Path-176" class="st3" points="652.4,675.8 683.2,709.3 958.9,831.8 870.2,993.4 						"/>
						<path id="Path-177" class="st3" d="M838.6,938.7L838.6,938.7l50,24"/>
						<polyline id="Path-178" class="st3" points="790.2,826.5 856.2,906.4 905,928.6 						"/>
						<polyline id="Path-179" class="st3" points="811.7,797.4 875.5,871.4 925.5,895 						"/>
						<polyline id="Path-180" class="st3" points="920.2,814.8 840.8,986.6 835.6,1029.3 844,1049.5 						"/>
						<polyline id="Path-181" class="st3" points="810.8,961.9 797.2,1007.8 811.7,1068.9 						"/>
						<polyline id="Path-182" class="st3" points="847.6,1049.5 894.4,1005.7 905,983 						"/>
						<polyline id="Path-183" class="st3" points="933.3,977.4 911.7,1024.7 884.2,1049.5 						"/>
						<path id="Path-185" class="st3" d="M982.9,998.4l23.9,12.3"/>
						<path id="Path-186" class="st3" d="M1019.6,993.4l-33.5,56.1"/>
						<path id="Path-187" class="st3" d="M1023.4,1049.5l18.3-28"/>
						<polyline id="Path-188" class="st3" points="1052.9,1049.5 1065.7,1004.5 1083,989.2 1119.3,890.4 1137.6,864.1 						"/>
						<path id="Path-189" class="st3" d="M1035.8,966.7l82.2-174.7"/>
						<path id="Path-191" class="st3" d="M1243.3,797.4l-139.3,252"/>
						<path id="Path-192" class="st3" d="M1251.1,803.2l17.7,24.7c2.9,4.1,3.2,9.5,0.8,13.9l-105.1,186.7l22.3,21l60.3-56.1"/>
						<polyline id="Path-193" class="st3" points="1338.5,848.3 1262.2,993.4 1328.8,1049.5 						"/>
						<path id="Path-194" class="st3" d="M1368.9,864.1l-55.1,102.7"/>
						<polyline id="Path-195" class="st3" points="1398.9,883.6 1338.5,993.4 1341.3,1025.3 1375.1,1049.5 						"/>
						<polyline id="Path-196" class="st3" points="1424.6,896.8 1402.9,931.6 1398.9,959.9 1493.7,1044.5 						"/>
						<path id="Path-197" class="st3" d="M1356.7,996.2l58.6,53.3"/>
						<path id="Path-198" class="st3" d="M1455,911.9l-158.2,137.6"/>
						<path id="Path-199" class="st3" d="M1415.4,943.5l98.8,84.2"/>
						<polyline id="Path-200" class="st3" points="1450.7,916.9 1450.7,931.2 1536.5,1009.3 						"/>
						<polyline id="Path-201" class="st3" points="1472.4,896.8 1493.6,923.5 1566.6,982.8 						"/>
						<path id="Path-202" class="st3" d="M1521,857.4l15.5,29.6"/>
						<path id="Path-203" class="st3" d="M1551.1,926l40,37.1"/>
						<path id="Path-204" class="st3" d="M1928.1,886.4l-6.3-8.4c-2.3-3-6.6-3.6-9.6-1.4c-0.4,0.3-0.7,0.6-1,1l-4.6,5.3
							c-0.6,0.7-1.4,1.4-2.2,2l-15,10.9c-0.9,0.7-1.7,1.4-2.4,2.3l-15.3,18.8c0,0,0,0,0,0l-16.4,20.3c-1.3,1.7-3.1,3-5,3.8l-4.6,2
							c-4.6,1.9-7.6,6.5-7.6,11.5v23.1c0,3.3-1.3,6.5-3.5,8.9l-12.6,13.3c-1.4,1.5-3.2,2.6-5.1,3.3l-25.8,9.1l-34.7,18.3l-24.1,18.1
							"/>
						<path id="Path-205" class="st3" d="M1778.8,1030.5l8.5,18.1l108.3-46.5c4.8-2,7.8-6.7,7.8-11.9v-42.8c0-1.9-0.4-3.8-1.2-5.5
							l-9.9-21.2c-3-6.5-10.7-9.3-17.2-6.2c-1.8,0.8-3.3,2-4.5,3.5"/>
						<path id="Path-206" class="st3" d="M1859.1,972.9v-2.3c0-4.7,2.5-8.9,6.5-11.2l14-7.9c1.7-0.9,3.8-0.4,4.7,1.3
							c0.8,1.3,0.6,3-0.5,4.1"/>
						<path id="Path-207" class="st3" d="M1920.3,943.6l7,30.9c0.1,0.5,0.3,1,0.5,1.6l4.1,11.4c2.2,6.1-0.9,12.8-7,15
							c-0.1,0-0.2,0.1-0.3,0.1l0,0c-4.5,1.5-9.5-0.9-11-5.5c-0.3-0.9-0.4-1.8-0.4-2.7"/>
						<path id="Path-208" class="st3" d="M0,0"/>
						<path id="Path-209" class="st3" d="M0,0"/>
						<path id="Path-210" class="st3" d="M0,0"/>
						<path id="Path-211" class="st3" d="M1829,1022l-18.5-41.8c-0.9-2-1.2-4.2-1.1-6.3l3.7-43.2c0.3-3,1.6-5.8,3.7-8l40.5-41
							c1.2-1.2,2.6-2.1,4.1-2.8l25.6-11c3.3-1.4,5.9-4.2,7.1-7.6l6-17l35.7-17.5"/>
						<polyline id="Path-212" class="st3" points="1894,700.5 1900.2,723.7 1903.4,755.6 1935.9,825.9 						"/>
						<path id="Path-213" class="st3" d="M1778.8,857.7L1778.8,857.7l15.6,19.8c0,0,0,0,0.1,0.1l13.5,17.5c0.9,1.1,1.5,2.4,2,3.7
							l3.5,10.2c0.2,0.4-0.1,0.9-0.5,1.1c-0.4,0.1-0.8,0-1-0.4"/>
						<path id="Path-214" class="st3" d="M1732.2,837.9l46.7,88.1l11.7,17.7c0.4,0.6,0.8,1.1,1.2,1.6l10.6,11.6
							c1.3,1.5,2.3,3.2,2.9,5.1l1.5,5.2c0.1,0.5-0.1,1-0.6,1.2c-0.4,0.1-0.9-0.1-1.1-0.4"/>
						<polyline id="Path-215" class="st3" points="1691.2,1027.6 1714.1,1002.1 1725.8,975.3 1770.7,911.9 						"/>
						<path id="Path-216" class="st3" d="M1708.4,861.7l62.3,103.7"/>
						<path id="Path-217" class="st3" d="M1708.4,1033.8l51.1-19.7c3.3-1.3,5.9-3.8,7.2-7l20.7-48l0,0c0.5-1.7-0.5-3.5-2.2-4
							c-1.2-0.3-2.4,0-3.3,0.9"/>
						<polyline id="Path-218" class="st3" points="1493.6,669.6 1551.1,740.2 1551.1,749.8 1682.9,878.6 						"/>
						<path id="Path-219" class="st3" d="M1615.1,603.9l47.9,56.7l12.7-10.6l22.3,29.2l34.1,14.5l20.3,33.2l-12,17.3
							c-1,1.4-2.3,2.7-3.8,3.6l-49.4,30.9c-6.1,3.8-7.9,11.8-4.1,17.8c0.1,0.2,0.2,0.4,0.4,0.6l38.1,54.3"/>
						<polyline id="Path-220" class="st3" points="1398.9,878.6 1551.1,749.8 1638.7,680.2 1657.2,669.6 1663,660.6 						"/>
						<path id="Path-221" class="st3" d="M1300.4,832.3l193.4-162.5l108.5-78.4l21.5-45.2c0,0,0-0.1,0.1-0.1l18.9-38.7
							c0-0.1,0.1-0.1,0.1-0.2l31-66.8"/>
						<path id="Path-222" class="st3" d="M1338.5,848.3l30.2-31.2"/>
						<path id="Path-223" class="st3" d="M1368.7,864.1l30.2-31.7"/>
						<path id="Path-224" class="st3" d="M1375.8,769.6l64.2,73.8"/>
						<path id="Path-225" class="st3" d="M1398.9,749.8l56.1,82.5"/>
						<path id="Path-226" class="st3" d="M1419,732.3l63.3,74.2"/>
						<path id="Path-227" class="st3" d="M1446.3,710.2l60.3,76.5"/>
						<path id="Path-228" class="st3" d="M1472.4,687.9l64,73.4"/>
						<path id="Path-233" class="st3" d="M1243.3,797.4l70.2-119.3c0.2-0.3,0.4-0.6,0.5-0.9l43-89.3c0.9-1.8,2.2-3.4,3.8-4.7
							l37.8-28.8c0.2-0.2,0.4-0.3,0.7-0.5l25.7-17.2c1.3-0.9,2.4-2,3.3-3.2l24.3-34c1.6-2.2,2.4-4.8,2.4-7.5v-8.5
							c0-2.2-0.6-4.4-1.7-6.4l-10-17.7c-2-3.5-5.8-5.7-9.8-5.7l0,0c-3.9,0-7.3,2.6-8.3,6.4l-6.6,24.3c-1.5,5.6-7.3,8.8-12.8,7.3
							c-0.5-0.1-1-0.3-1.5-0.6l-8.7-3.9c-1.6-0.7-3.1-1.8-4.3-3.1l-13.6-15c-4.8-5.3-4.4-13.5,0.9-18.3c0.1-0.1,0.2-0.2,0.3-0.3
							l36.5-31.2c0,0,0.1-0.1,0.1-0.1l34.9-29.2c2.9-2.5,4.6-6.1,4.6-9.9v-19.8"/>
						<path id="Path-253" class="st3" d="M1170.5,759.3l32.5-45.5l52-99.5c0.1-0.2,0.2-0.4,0.3-0.6l38.6-84.3
							c0.3-0.6,0.5-1.1,0.9-1.6l30.9-48.2c0.2-0.3,0.4-0.6,0.6-0.9l26.9-51.1c0.6-1.1,1.4-2.2,2.3-3.1l31.2-31.4c2-2,5.3-2.1,7.4,0
							c1.7,1.7,2,4.4,0.8,6.5"/>
						<path id="Path-255" class="st3" d="M1294.7,710.2l91.7,51.2"/>
						<path id="Path-256" class="st3" d="M1279.3,737.1l81.5,49.6"/>
						<path id="Path-257" class="st3" d="M1211.4,781.2l55.4-102c1.2-2.2,3-4,5.2-5.2l15.4-8.4c5.4-2.9,12.1-1.6,16.1,3l0.4,0.5
							c0.8,1,2.3,1.1,3.3,0.3c0.7-0.6,1-1.6,0.7-2.4l-12-40.2c-0.8-2.7-0.7-5.7,0.3-8.4l17.3-44.9c0.1-0.3,0.2-0.6,0.4-0.9
							l35.1-74.7c0-0.1,0.1-0.1,0.1-0.2l9.8-20.1c0,0,0,0,0,0s0,0,0,0"/>
						<path id="Path-295" class="st3" d="M1757.6,804.5l-28.6-21.8c-2.6-1.9-3.1-5.6-1.1-8.2c0.1-0.1,0.1-0.2,0.2-0.3l2.1-2.4
							c1.3-1.5,2.9-2.7,4.8-3.5l10.7-4.5c1.1-0.5,2.1-1.1,3.1-1.8l56-44.7l24.8-3.7l11.5-35.6v-24.7"/>
						<polyline id="Path-297" class="st3" points="1778.8,689 1775.2,700.5 1804.8,750.1 1863.5,745.6 1863.6,755.6 						"/>
						<polyline id="Path-298" class="st3" points="1698.1,679.1 1596.4,749.8 1493.7,837.9 1426.9,896.8 						"/>
						<path id="Path-299" class="st3" d="M1493.6,797.4l42.9,45.9"/>
						<path id="Path-300" class="st3" d="M1605,854.2l52.1,52.4"/>
						<path id="Path-301" class="st3" d="M1577.5,871.3l56.7,54.7"/>
						<path id="Path-302" class="st3" d="M0,0"/>
						<path id="Path-303" class="st3" d="M870.2,677.7l230.4,105.6"/>
						<path id="Path-306" class="st3" d="M1052.9,647.5l-41.9,92.9"/>
						<path id="Path-307" class="st3" d="M1083.5,660.5l-41.8,94.6"/>
						<path id="Path-312" class="st3" d="M1073.4,1004.5l71.9,45"/>
						<path id="Path-313" class="st3" d="M1095.2,986.8l69.2,41.7"/>
						<path id="Path-314" class="st3" d="M1109.4,956.8l32.9,20.7"/>
						<polyline id="Path-315" class="st3" points="1160.8,947.3 1129.8,932.1 1133.2,906.4 1170.6,926.8 						"/>
						<polyline id="Path-316" class="st3" points="1195.1,895 1150.2,872.8 1133.7,887.3 1279.3,966.7 						"/>
						<path id="Path-317" class="st3" d="M1288.6,1014.8l-37.1,34.6"/>
						<path id="Path-318" class="st3" d="M1224.2,1014.8l33.9,31"/>
						<polyline id="Path-319" class="st3" points="1262.2,993.4 1190.3,977.4 1158.2,966.7 						"/>
						<polyline id="Path-320" class="st3" points="835.6,743.6 928.6,790.9 973.8,806.5 						"/>
						<path id="Path-321" class="st3" d="M958.9,831.8l52-91.4"/>
						<polyline id="Path-322" class="st3" points="852.4,722.5 964.4,775.1 955.3,797.4 						"/>
						<polyline id="Path-323" class="st3" points="835.6,775.1 862.7,759.3 951.1,713.3 						"/>
						<path id="Path-324" class="st3" d="M704.5,687.9l131.1,56.2"/>
						<path id="Path-329" class="st3" d="M808.8,669.8l-35.5,77.8"/>
						<path id="Path-330" class="st3" d="M432.8,618.6L582,863.2"/>
						<path id="Path-331" class="st3" d="M398.3,639.6l141.4,237.9"/>
						<path id="Path-332" class="st3" d="M582,806.5l35.2,49.4"/>
						<path id="Path-333" class="st3" d="M599.6,783.3L659,850"/>
						<path id="Path-334" class="st3" d="M629.3,752.4l73,82.2"/>
						<path id="Path-335" class="st3" d="M646.6,728.8l62.3,64.7"/>
						<path id="Path-337" class="st3" d="M986.2,989l-41.4-22.3"/>
						<path id="Path-338" class="st3" d="M964.4,1027l-32-22.5"/>
						<polyline id="Path-339" class="st3" points="1210.2,781.2 1189.4,820.5 1170.5,827.1 1158.2,808.2 1100.6,783.3 						"/>
						<polyline id="Path-340" class="st3" points="1118,797.4 1150.2,761.9 1164.4,765.1 1164.4,786.7 1155.4,807.3 						"/>
						<path id="Path-341" class="st3" d="M1183.8,768.9l-5.7,55"/>
						<path id="Path-342" class="st3" d="M1221.9,836.3l-32.5-15.8"/>
						<path id="Path-343" class="st3" d="M1322.3,880.6l-56.1-32.4"/>
						<path id="Path-353" class="st3" d="M1195.4,759.7l6-8c1-1.3,1.7-2.7,2.1-4.3l5.2-18.1c0.9-3.2,3-5.9,5.9-7.6l28.5-16.8
							c3.6-2.1,5.9-5.8,6.3-9.9l2.4-25.1c0.2-2.6,1.3-5.1,3-7.1l12.4-14.8c0.9-1.1,1.6-2.3,2.1-3.5l9.8-24.8
							c0.1-0.2,0.1-0.3,0.2-0.5l15.2-33.9c0-0.1,0-0.1,0.1-0.2l12.3-28.6c0-0.1,0.1-0.1,0.1-0.2l12.7-28.2c0.2-0.4,0.4-0.8,0.6-1.2
							l13-22.3c0.1-0.1,0.1-0.2,0.2-0.3l14.9-24c0.4-0.7,0.9-1.3,1.5-1.9l18.9-20.6"/>
						<path id="Path-360" class="st3" d="M276.7,58.5l7.7,40.7c0.1,0.6,0.2,1.1,0.2,1.7l3.6,67.5c0.1,2.5,1,4.9,2.4,6.9l39.6,54.9
							c0.9,1.3,2.1,2.4,3.4,3.3l118.4,77.1c0.1,0.1,0.2,0.1,0.3,0.2l107.3,73.9c0.2,0.1,0.4,0.3,0.6,0.4l58.4,45.1l82.1,74.1
							c0.8,0.7,1.4,1.5,2,2.3l67.2,98.6l39.2,51.7l45.8,51.9l79.1,42.7l164,76l168,82.4l139.3,102l74.4,73.6"/>
						<path id="Path-360-Copy" class="st3" d="M272.3,3.6l14.6,77.6c0.1,0.6,0.2,1.1,0.2,1.7l3.6,67.5c0.1,2.5,1,4.9,2.4,6.9
							l39.6,54.9c0.9,1.3,2.1,2.4,3.4,3.3l118.4,77.1c0.1,0.1,0.2,0.1,0.3,0.2l107.3,73.9c0.2,0.1,0.4,0.3,0.6,0.4l58.4,45.1
							l82.1,74.1c0.8,0.7,1.4,1.5,2,2.3l67.2,98.6l39.2,51.7l45.8,51.9l79.1,42.7l163.9,76c0.1,0,0.2,0.1,0.3,0.1l166.9,81.8
							c0.7,0.3,1.3,0.7,1.9,1.2l137.6,100.7c0.5,0.4,1,0.8,1.5,1.2l73.7,72.9"/>
						<path id="Path-375" class="st3" d="M997.4,781.2L966.6,846c-0.7,1.4-1.1,2.9-1.2,4.4l-5.4,60.2c-0.6,6.3,3.6,12.2,9.8,13.7
							l31,7.7c3.9,1,8,0.1,11.2-2.4l12.6-10c2-1.6,3.4-3.6,4.2-6l19.6-58.1c0.8-2.4,0.9-5,0.3-7.4l-12.8-48.8L997.4,781.2z"/>
						<path id="Path-184" class="st3" d="M951.7,1049.5l48.6-86.8c3.3-5.9,10.6-8.3,16.8-5.4l31.3,14.6c6.5,3,14.2,0.2,17.2-6.2
							c0,0,0,0,0,0l85.5-184c2-4.2,0.1-9.2-4.1-11.2c-3.8-1.7-8.2-0.5-10.5,2.9"/>
						<polyline id="Path-190" class="st3" points="734.7,876.1 833.4,986.6 892.2,1003.4 936.6,1049.5 						"/>
						<path id="Path-14" class="st3" d="M102,744.8l111.3,192.5c0,0,0,0,0,0l37.2,62.6c0.3,0.5,0.6,0.9,0.9,1.3l52.8,59.4"/>
					</g>
					
						<g transform="translate(543.000000, 928.500000) scale(-1, -1) rotate(-270.000000) translate(-543.000000, -928.500000) translate(-385.500000, 385.500000)">
						<path id="Path-4" class="st3" d="M22.9,730.1l34.5-22.5l62.6-39.2l67.2-37.2l63.5-40.8l17.3-11.2l40.1,29.1l68.5-6H445l42.4,6
							l12.1,14.7l38.9,62.9l29.5,44.2l32-22.5l87.2-60.9l129.2-85.1c1-0.7,2.2-1.2,3.4-1.6l98.5-29.5l30.4-13.2l102.7-36.2
							c0.3-0.1,0.7-0.2,1.1-0.3l87.6-22.7c0.1,0,0.2-0.1,0.3-0.1l34.3-9.8c2.2-0.6,4.1-1.8,5.7-3.4l35.5-36.3
							c0.8-0.8,1.5-1.8,2.1-2.8l8.9-16c1.8-3.2,4.8-5.5,8.3-6.3l29.3-7c3.5-0.8,6.5-3.1,8.3-6.2l20.1-35.6c1.1-2,2.8-3.7,4.8-4.8
							l29.1-16.8c1.5-0.9,2.9-2.1,3.9-3.5l39.3-53.2c0.7-0.9,1.3-2,1.7-3l19.8-51.4c0.7-1.7,1.7-3.3,3.1-4.6l36.6-35.6
							c0.7-0.7,1.5-1.3,2.3-1.8l100.7-61.4c1.1-0.7,2.1-1.5,2.9-2.4l32.9-36.7c4-4.5,3.6-11.4-0.8-15.4c-3.2-2.9-7.8-3.6-11.7-1.8"
							/>
						<polyline id="Path-5_1_" class="st3" points="22.9,778 202.5,665.8 222.3,699 278.7,797.5 357.6,927.4 377.8,960.7 
							466.9,1060.6 						"/>
						<path id="Path-6_1_" class="st3" d="M22.6,821L376.3,604l23.3,37.2l40.6-12.9l47-29.5l10.3-43.9c0.4-1.7,1.2-3.4,2.2-4.8
							l17.8-23.7c0.4-0.5,0.9-1.1,1.4-1.5l12.2-11.8c4-3.9,4.5-10.2,1-14.7l-4.8-6.2c-0.8-1.1-1.8-2-3-2.8L440.2,433l-30.1-17.2
							l-9.2-15.9c-0.9-1.5-2.1-2.9-3.5-3.9l-21.1-15.5l9.4-16.2c3.5-6,1.6-13.7-4.2-17.4l-18.1-11.5c-3.1-2-6.9-2.5-10.5-1.5
							l-35.7,10l-27,34.6c-1,1.3-2.3,2.5-3.8,3.3L236.6,410c-0.2,0.1-0.5,0.3-0.7,0.4l-45.7,22.2c-0.6,0.3-1.2,0.5-1.9,0.7
							l-27.7,8.4c-0.2,0.1-0.4,0.1-0.6,0.2l-16.3,4.1c-3.8,0.9-6.9,3.5-8.6,7.1l-1.9,4c-2.1,4.5-6.7,7.4-11.7,7.4H83.9
							c-4,0-7.8,1.9-10.2,5l-12,15.5c-2.7,3.5-7.1,5.4-11.5,5l-35-3.4c-7.1-0.7-13.4,4.5-14.1,11.6c-0.1,0.7-0.1,1.4,0,2.1"/>
						<polyline id="Path-7_1_" class="st3" points="22.6,863.2 212,749.4 399.6,641.2 						"/>
						<path id="Path-8_1_" class="st3" d="M22.6,911.4l476.7-286.6l52.7-15.5l44,23.3l29.5,55.3l17.2,64.3L619,840.6l99.7-24.4
							c3.7-0.9,6.8-3.4,8.5-6.8l64.8-129.7l41.8-47l34.6-86.4"/>
						<polyline id="Path-9_1_" class="st3" points="22.6,957 154.9,878.4 219.7,837.7 519.9,660.7 						"/>
						<polyline id="Path-11_1_" class="st3" points="22.6,1003.4 234.4,876.6 301.8,833.5 408.2,771.9 544.3,698.7 604.2,649.5 
													"/>
						<polyline id="Path-12_1_" class="st8" points="22.6,1047.2 90.2,1003.4 224.2,925.6 319.2,863.2 455.1,793.5 479.1,752.4 
							555.9,716.9 						"/>
						<polyline id="Path-13_1_" class="st3" points="101.3,1047.2 111.3,1036.6 244.7,957 376.2,882 476.3,821 509.1,801.7 
							567.6,732.3 						"/>
						<polyline id="Path-15_1_" class="st3" points="22.6,821 143.8,1017.8 211.1,1072.1 						"/>
						<polyline id="Path-16_1_" class="st3" points="22.6,896.4 111.3,1036.6 130.8,1060.6 						"/>
						<polyline id="Path-18_1_" class="st3" points="22.9,684.2 50.8,716.9 68.6,745.3 110.4,808.8 189.7,946.5 211.1,978.5 
							225.2,1003.4 271.3,1060.6 						"/>
						<path id="Path-19_1_" class="st3" d="M58.2,667.6l65.7,90.2l79.4,138.6l55.4,90.2l30.6-20.1l39.3-20l64.6-42.1l28.5-20.8
							c1.5-1.1,3.2-1.8,4.9-2.2L619,840.6"/>
						<polyline id="Path-20_1_" class="st3" points="22.6,576.7 76.7,616 101.3,641.2 289.2,966.5 289.2,986.6 313.4,1014.3 						
							"/>
						<path id="Path-22_1_" class="st8" d="M22.6,576.7l15.3-13.8c3.1-2.8,7.4-3.9,11.4-3l31.5,6.9c2.4,0.5,4.6,1.7,6.3,3.5
							l36.7,36.5l6.9,16.2l37.2,60.4l76.7,130.9l83.8,132.3"/>
						<polyline id="Path-31_1_" class="st3" points="203.1,582 419.7,947.3 544.5,1085.5 						"/>
						<polyline id="Path-33_1_" class="st3" points="567.6,1049.5 439.5,908.9 250.5,592.1 						"/>
						<polyline id="Path-48" class="st3" points="160.4,609.1 121.9,605.4 97.4,605.4 71.8,611.9 22.6,638.9 						"/>
						<path id="Path-50" class="st3" d="M78.1,653.7l-55.2,30.5"/>
						<path id="Path-51" class="st3" d="M33.3,632.4l24.9,35.3"/>
						<polyline id="Path-52" class="st3" points="55.2,622.1 66.7,633.3 84.5,624.2 						"/>
						<path id="Path-63" class="st3" d="M228.5,534.6l2.9,48.8"/>
						<polyline id="Path-133_1_" class="st3" points="655.7,876.1 519.9,882 366.4,1014.8 						"/>
						<path id="Path-330_1_" class="st3" d="M353.8,618.6L503,863.2"/>
						<path id="Path-331_1_" class="st3" d="M319.3,639.6l141.4,237.9"/>
						<path id="Path-360_1_" class="st3" d="M197.7,58.5l7.7,40.7c0.1,0.6,0.2,1.1,0.2,1.7l3.6,67.5c0.1,2.5,1,4.9,2.4,6.9
							l39.6,54.9c0.9,1.3,2.1,2.4,3.4,3.3l118.4,77.1c0.1,0.1,0.2,0.1,0.3,0.2l107.3,73.9c0.2,0.1,0.4,0.3,0.6,0.4l58.4,45.1
							l82.1,74.1c0.8,0.7,1.4,1.5,2,2.3l67.2,98.6l39.2,51.7l45.8,51.9l79.1,42.7l164,76l168,82.4l139.3,102l74.4,73.6"/>
						<path id="Path-360-Copy_1_" class="st3" d="M193.3,3.6l14.6,77.6c0.1,0.6,0.2,1.1,0.2,1.7l3.6,67.5c0.1,2.5,1,4.9,2.4,6.9
							l39.6,54.9c0.9,1.3,2.1,2.4,3.4,3.3l118.4,77.1c0.1,0.1,0.2,0.1,0.3,0.2l107.3,73.9c0.2,0.1,0.4,0.3,0.6,0.4l58.4,45.1
							l82.1,74.1c0.8,0.7,1.4,1.5,2,2.3l67.2,98.6l39.2,51.7l45.8,51.9l79.1,42.7l163.9,76c0.1,0,0.2,0.1,0.3,0.1l166.9,81.8
							c0.7,0.3,1.3,0.7,1.9,1.2l137.6,100.7c0.5,0.4,1,0.8,1.5,1.2l73.7,72.9"/>
						<path id="Path-2" class="st3" d="M77.6,653.7l53.8-33.5c0.8-0.5,1.6-0.9,2.4-1.2l32.1-11.6c1.4-0.5,2.9-0.8,4.4-0.8h20
							c2.3,0,4.5-0.6,6.4-1.7l36.6-21c1.4-0.8,2.9-1.3,4.5-1.6l49.8-7.4c0.9-0.1,1.7-0.2,2.6-0.1l57.7,3.2c0.9,0.1,1.9,0,2.8-0.1
							L405,569c1.1-0.2,2.3-0.2,3.4-0.1l54.3,5.7c0.9,0.1,1.8,0.1,2.7,0l56.1-5.8c0.7-0.1,1.4-0.1,2,0l109.1,6l73.8-55.1
							c0.9-0.7,2-1.3,3.1-1.7l36.4-14.2c3.7-1.4,6.6-4.5,7.7-8.4l25.3-85c0.5-1.6,1.3-3.2,2.4-4.5l34.5-42.3c1.5-1.8,3.4-3.2,5.7-4
							l62.9-22.5c1.4-0.5,2.9-0.8,4.4-0.8h24.1c2.9,0,5.6-0.9,7.9-2.7l23.3-18c2.9-2.2,6.5-3.1,10.1-2.5l28.2,4.9
							c4.5,0.8,9.1-0.9,12-4.3l7.1-8.3c1.8-2.1,4.1-3.5,6.7-4.2l25.9-6.4c4.2-1,7.6-4.1,9.1-8.2l12.6-35.1c0.7-1.8,1.7-3.5,3.1-4.9
							l31.5-30.7c0.7-0.7,1.3-1.4,1.8-2.2l23.5-35.8c1.2-1.8,1.9-3.9,2.1-6l6.4-74.8c0.4-4.3,2.9-8.2,6.7-10.2l30.3-16.6
							c0,0,0.1,0,0.1-0.1l45.2-24.1c1.6-0.9,3-2.1,4.2-3.5l15.6-20.2c1.9-2.5,1.5-6.1-1-8.1c-1.8-1.4-4.3-1.6-6.3-0.5"/>
					</g>
				</g>
			</g>
			<defs>
				<filter id="Adobe_OpacityMaskFilter_1_" filterUnits="userSpaceOnUse" x="-29.7" y="1666.6" width="1085.9" height="2122.4">
					<feColorMatrix  type="matrix" values="1 0 0 0 0  0 1 0 0 0  0 0 1 0 0  0 0 0 1 0"/>
				</filter>
			</defs>
			<mask maskUnits="userSpaceOnUse" x="-29.7" y="1666.6" width="1085.9" height="2122.4" id="mask-2_2_">
				<g class="st9">
					<rect id="path-1_3_" y="0.7" class="st0" width="320" height="3625"/>
				</g>
			</mask>
			<g id="_x23_UI-_x2F_-Maps-_x2F_-Content---01_1_" class="st10">
				<g transform="translate(-30.000000, 1851.000000)">
					
						<g transform="translate(543.203058, 972.990451) rotate(-270.000000) translate(-543.203058, -972.990451) translate(-429.296942, 429.990451)">
						<polyline id="Path-5_2_" class="st3" points="110.6,775.7 290.5,665.8 310.3,699 366.7,797.5 445.6,927.4 465.8,960.7 
							554.9,1060.6 						"/>
						<path id="Path-6_2_" class="st3" d="M110.6,821L464.3,604l23.3,37.2l40.6-12.9l47-29.5l10.3-43.9c0.4-1.7,1.2-3.4,2.2-4.8
							l17.8-23.7c0.4-0.5,0.9-1.1,1.4-1.5l12.2-11.8c4-3.9,4.5-10.2,1-14.7l-4.8-6.2c-0.8-1.1-1.8-2-3-2.8L528.2,433l-30.1-17.2
							l-9.2-15.9c-0.9-1.5-2.1-2.9-3.5-3.9l-21.1-15.5l9.4-16.2c3.5-6,1.6-13.7-4.2-17.4l-18.1-11.5c-3.1-2-6.9-2.5-10.5-1.5
							l-35.7,10l-27,34.6c-1,1.3-2.3,2.5-3.8,3.3L324.6,410c-0.2,0.1-0.5,0.3-0.7,0.4l-45.7,22.2c-0.6,0.3-1.2,0.5-1.9,0.7
							l-27.7,8.4c-0.2,0.1-0.4,0.1-0.6,0.2l-16.3,4.1c-3.8,0.9-6.9,3.5-8.6,7.1l-1.9,4c-2.1,4.5-6.7,7.4-11.7,7.4h-37.6
							c-4,0-7.8,1.9-10.2,5l-12,15.5c-2.7,3.5-7.1,5.4-11.5,5l-35-3.4c-7.1-0.7-13.4,4.5-14.1,11.6c-0.1,0.7-0.1,1.4,0,2.1"/>
						<polyline id="Path-7_2_" class="st3" points="110.6,863.2 300,749.4 487.6,641.2 						"/>
						<path id="Path-8_2_" class="st3" d="M110.6,911.4l476.7-286.6l52.7-15.5l44,23.3l29.5,55.3l17.2,64.3L707,840.6l99.7-24.4
							c3.7-0.9,6.8-3.4,8.5-6.8l64.8-129.7l41.8-47l34.6-86.4"/>
						<polyline id="Path-9_2_" class="st3" points="110.6,957 242.9,878.4 307.7,837.7 607.9,660.7 						"/>
						<polyline id="Path-11_2_" class="st3" points="110.6,1003.4 322.4,876.6 389.8,833.5 496.2,771.9 632.3,698.7 692.2,649.5 
													"/>
						<polyline id="Path-12_2_" class="st3" points="110.6,1047.2 178.2,1003.4 312.2,925.6 407.2,863.2 549.1,782.9 643.9,716.9 
													"/>
						<polyline id="Path-13_2_" class="st3" points="189.3,1047.2 199.3,1036.6 332.7,957 464.2,882 564.3,821 597.1,801.7 
							655.6,732.3 						"/>
						<polyline id="Path-15_2_" class="st3" points="110.6,821 231.8,1017.8 299.1,1072.1 						"/>
						<polyline id="Path-16_2_" class="st3" points="110.6,896.4 199.3,1036.6 218.8,1060.6 						"/>
						
							<linearGradient id="Path-17_2_" gradientUnits="userSpaceOnUse" x1="671.6022" y1="1610.1532" x2="672.3495" y2="1610.1866" gradientTransform="matrix(0 -243.206 -211.7483 0 340790.4688 164272.6406)">
							<stop  offset="0" style="stop-color:#FF594C"/>
							<stop  offset="0.5256" style="stop-color:#FFC563"/>
							<stop  offset="1" style="stop-color:#FF594C"/>
						</linearGradient>
						<path id="Path-17_1_" class="st11" d="M-183.9,817.4l86,86.2l-16.3,13.8c-3.8,3.2-4.7,8.7-2.1,12.9l58.4,95.2
							c2.5,4.1,8,5.4,12.1,2.9c0.1,0,0.1-0.1,0.1-0.1l1-0.6c4-2.6,9.2-2.7,13.3-0.4l59.1,33.3"/>
						<polyline id="Path-18_2_" class="st3" points="122.2,683.3 138.8,716.9 156.6,745.3 198.4,808.8 277.7,946.5 299.1,978.5 
							313.2,1003.4 359.3,1060.6 						"/>
						<path id="Path-19_2_" class="st3" d="M154.7,665.8l57.2,92l79.4,138.6l55.4,90.2l30.6-20.1l39.3-20l64.6-42.1l28.5-20.8
							c1.5-1.1,3.2-1.8,4.9-2.2L707,840.6"/>
						<polyline id="Path-20_2_" class="st3" points="110.6,576.7 164.7,616 189.3,641.2 377.2,966.5 377.2,986.6 401.4,1014.3 
													"/>
						<polyline id="Path-21_1_" class="st3" points="267.7,1047.2 280.6,1032.2 346.6,986.6 						"/>
						<path id="Path-22_2_" class="st3" d="M110.6,576.7l15.3-13.8c3.1-2.8,7.4-3.9,11.4-3l31.5,6.9c2.4,0.5,4.6,1.7,6.3,3.5
							l36.7,36.5l6.9,16.2l37.2,60.4l76.7,130.9l83.8,132.3"/>
						<polyline id="Path_1_" class="st3" points="1464,1078.1 1796.6,793.6 1829.7,777 1872.6,755.6 1892.5,772.2 1887.2,804.3 
							1850.8,826.4 1815.1,810.1 1829.7,781.1 						"/>
						<path id="Path-3_1_" class="st3" d="M1540.2,1078.1l167.9-101"/>
						<path id="Path-10_1_" class="st3" d="M1666.2,906.7l81.8,142.7"/>
						<path id="Path-23_1_" class="st3" d="M1643.3,926l91.5,152.2"/>
						<path id="Path-24_1_" class="st3" d="M1619,946.2l81.2,131.9"/>
						<path id="Path-25_1_" class="st3" d="M1596.4,965.3l71.7,112.8"/>
						<path id="Path-26_1_" class="st3" d="M1575.6,982.8l59.7,95.4"/>
						<path id="Path-27_1_" class="st3" d="M1554.9,1002.1l45.2,76.1"/>
						<path id="Path-28_1_" class="st3" d="M1535.1,1019l42.4,59.1"/>
						<path id="Path-29_1_" class="st3" d="M1514.5,1036.1l31,42"/>
						<path id="Path-30_1_" class="st3" d="M1684.7,890.5l76.8,121.7"/>
						<polyline id="Path-31_2_" class="st3" points="305.6,614 478.3,911.4 603.1,1049.5 						"/>
						<polyline id="Path-32_1_" class="st3" points="473.6,937.3 477,943.6 573.7,1049.5 						"/>
						<polyline id="Path-33_2_" class="st3" points="655.6,1049.5 527.5,908.9 338.5,592.1 						"/>
						<path id="Path-34_1_" class="st3" d="M497.1,929.1l-137.8,120.4"/>
						<path id="Path-35_1_" class="st3" d="M422.5,941.9l79.2,90.8"/>
						<path id="Path-36_1_" class="st3" d="M416.5,946.5l-114.2,103"/>
						<path id="Path-37_1_" class="st3" d="M391.2,969.6l25.3,31"/>
						<path id="Path-38_1_" class="st3" d="M406.2,955.2l81.4,92"/>
						<path id="Path-39_1_" class="st3" d="M359.4,998l26.4,28.3"/>
						<path id="Path-40_1_" class="st3" d="M346.6,1008.8l22.6,31.7"/>
						<path id="Path-114_1_" class="st3" d="M808.1,538.9l44.7,73.2l322.7,148.4l127.2,68.1l164.5,86.7l212.8-178.4
							c1-0.8,2.1-1.5,3.2-2l28.1-12l26.7-44.2l-11.6-38.1l24.8-116.1c0.2-0.9,0.3-1.8,0.3-2.7v-26c0-1.4,0.2-2.7,0.6-4l8.9-27.6
							c1.7-5.2-1.2-10.8-6.4-12.5c-1-0.3-2-0.5-3-0.5h-8c-3.6,0-7-1.5-9.4-4.1l-4.3-4.5c-2.3-2.4-3.5-5.6-3.5-8.9v-19.1
							c0-4.2-3.4-7.5-7.5-7.5l0,0c-4.6,0-8.8-2.6-10.8-6.8l-12.2-25.1c-0.5-1-1.1-1.9-1.7-2.7l-17-20.1c-1.6-1.8-2.6-4.1-2.9-6.5
							l-2.6-17.9c-0.6-3.8,0.6-7.7,3.3-10.6l9.1-9.9c1.7-1.9,4-3.2,6.5-3.8l11.6-2.8c4.5-1.1,9.2,0.3,12.4,3.7l9.1,9.6
							c0.2,0.2,0.4,0.4,0.6,0.6l20.1,18.7"/>
						<polyline id="Path-115_1_" class="st3" points="937.6,596.1 1166.5,696.9 1179.5,759.3 						"/>
						<path id="Path-124_1_" class="st3" d="M812.9,812c0,0-93.1,81.2-279.4,243.5"/>
						<path id="Path-125_1_" class="st3" d="M879.2,863.2l-223.6,197.4"/>
						<path id="Path-127_1_" class="st3" d="M716.5,899.4l50.1,56.6c0.6,0.6,1.2,1.2,1.9,1.7l8,6.1c3.9,3,5.8,7.8,4.9,12.6
							l-6.9,37.9c-0.6,3.1,0,6.3,1.6,9l8.4,14c0.2,0.4,0.7,0.5,1.1,0.3c0.3-0.2,0.5-0.6,0.3-1"/>
						<path id="Path-128_1_" class="st3" d="M692.2,921.1l59.8,77.2c2.4,3.2,6.2,5,10.2,5h15.5"/>
						<path id="Path-129_1_" class="st3" d="M661.4,941.9l99.8,113.6"/>
						<polyline id="Path-130_1_" class="st3" points="548.8,876.1 573.7,904.2 707,1049.5 						"/>
						<path id="Path-131_1_" class="st3" d="M591,863.2l70.4,78.7"/>
						<polyline id="Path-132_1_" class="st3" points="643.9,855.9 650.4,882 692.2,921.1 						"/>
						<polyline id="Path-133_2_" class="st3" points="743.7,876.1 607.9,882 454.4,1014.8 						"/>
						<path id="Path-134_1_" class="st3" d="M487.6,1047.2l61.2-53.8"/>
						<polyline id="Path-176_1_" class="st3" points="661.4,675.8 692.2,709.3 967.9,831.8 879.2,993.4 						"/>
						<path id="Path-177_1_" class="st3" d="M847.6,938.7L847.6,938.7l50,24"/>
						<polyline id="Path-178_1_" class="st3" points="799.2,826.5 865.2,906.4 914,928.6 						"/>
						<polyline id="Path-179_1_" class="st3" points="820.7,797.4 884.5,871.4 934.5,895 						"/>
						<polyline id="Path-180_1_" class="st3" points="929.2,814.8 849.8,986.6 844.6,1029.3 853,1049.5 						"/>
						<polyline id="Path-181_1_" class="st3" points="819.8,961.9 806.2,1007.8 814.6,1049.5 						"/>
						<polyline id="Path-182_1_" class="st3" points="856.6,1049.5 903.4,1005.7 914,983 						"/>
						<polyline id="Path-183_1_" class="st3" points="942.3,977.4 920.7,1024.7 893.2,1049.5 						"/>
						<path id="Path-185_1_" class="st3" d="M991.9,998.4l23.9,12.3"/>
						<path id="Path-186_1_" class="st3" d="M1028.6,993.4l-33.5,56.1"/>
						<path id="Path-187_1_" class="st3" d="M1032.4,1049.5l18.3-28"/>
						<polyline id="Path-188_1_" class="st3" points="1061.9,1049.5 1074.7,1004.5 1092,989.2 1128.3,890.4 1146.6,864.1 						"/>
						<path id="Path-189_1_" class="st3" d="M1044.8,966.7l82.2-174.7"/>
						<path id="Path-191_1_" class="st3" d="M1252.3,797.4l-139.3,252"/>
						<path id="Path-192_1_" class="st3" d="M1260.1,803.2l17.7,24.7c2.9,4.1,3.2,9.5,0.8,13.9l-105.1,186.7l22.3,21l60.3-56.1"/>
						<polyline id="Path-193_1_" class="st3" points="1347.5,848.3 1271.2,993.4 1337.8,1049.5 						"/>
						<path id="Path-194_1_" class="st3" d="M1377.9,864.1l-55.1,102.7"/>
						<polyline id="Path-195_1_" class="st3" points="1407.9,883.6 1347.5,993.4 1350.3,1025.3 1384.1,1049.5 						"/>
						<polyline id="Path-196_1_" class="st3" points="1433.6,896.8 1411.9,931.6 1407.9,959.9 1502.7,1044.5 						"/>
						<path id="Path-197_1_" class="st3" d="M1365.7,996.2l58.6,53.3"/>
						<path id="Path-198_1_" class="st3" d="M1464,911.9l-158.2,137.6"/>
						<path id="Path-199_1_" class="st3" d="M1424.4,943.5l98.8,84.2"/>
						<polyline id="Path-200_1_" class="st3" points="1459.7,916.9 1459.7,931.2 1545.5,1009.3 						"/>
						<polyline id="Path-201_1_" class="st3" points="1481.4,896.8 1502.6,923.5 1575.6,982.8 						"/>
						<path id="Path-202_1_" class="st3" d="M1530,857.4l15.5,29.6"/>
						<path id="Path-203_1_" class="st3" d="M1560.1,926l40,37.1"/>
						<path id="Path-204_1_" class="st3" d="M1937.1,886.4l-6.3-8.4c-2.3-3-6.6-3.6-9.6-1.4c-0.4,0.3-0.7,0.6-1,1l-4.6,5.3
							c-0.6,0.7-1.4,1.4-2.2,2l-15,10.9c-0.9,0.7-1.7,1.4-2.4,2.3l-15.3,18.8c0,0,0,0,0,0l-16.4,20.3c-1.3,1.7-3.1,3-5,3.8l-4.6,2
							c-4.6,1.9-7.6,6.5-7.6,11.5v23.1c0,3.3-1.3,6.5-3.5,8.9l-12.6,13.3c-1.4,1.5-3.2,2.6-5.1,3.3l-25.8,9.1l-34.7,18.3l-24.1,18.1
							"/>
						<path id="Path-213_1_" class="st3" d="M1787.8,857.7L1787.8,857.7l15.6,19.8c0,0,0,0,0.1,0.1l13.5,17.5c0.9,1.1,1.5,2.4,2,3.7
							l3.5,10.2c0.2,0.4-0.1,0.9-0.5,1.1c-0.4,0.1-0.8,0-1-0.4"/>
						<path id="Path-214_1_" class="st3" d="M1741.2,837.9l46.7,88.1l11.7,17.7c0.4,0.6,0.8,1.1,1.2,1.6l10.6,11.6
							c1.3,1.5,2.3,3.2,2.9,5.1l1.5,5.2c0.1,0.5-0.1,1-0.6,1.2c-0.4,0.1-0.9-0.1-1.1-0.4"/>
						<polyline id="Path-215_1_" class="st3" points="1700.2,1027.6 1723.1,1002.1 1734.8,975.3 1779.7,911.9 						"/>
						<path id="Path-216_1_" class="st3" d="M1717.4,861.7l62.3,103.7"/>
						<path id="Path-217_1_" class="st3" d="M1717.4,1033.8l51.1-19.7c3.3-1.3,5.9-3.8,7.2-7l20.7-48l0,0c0.5-1.7-0.5-3.5-2.2-4
							c-1.2-0.3-2.4,0-3.3,0.9"/>
						<polyline id="Path-218_1_" class="st3" points="1502.6,669.6 1560.1,740.2 1560.1,749.8 1691.9,878.6 						"/>
						<path id="Path-219_1_" class="st3" d="M1624.1,603.9l47.9,56.7l12.7-10.6l22.3,29.2l34.1,14.5l20.3,33.2l-12,17.3
							c-1,1.4-2.3,2.7-3.8,3.6l-49.4,30.9c-6.1,3.8-7.9,11.8-4.1,17.8c0.1,0.2,0.2,0.4,0.4,0.6l38.1,54.3"/>
						<polyline id="Path-220_1_" class="st3" points="1407.9,878.6 1560.1,749.8 1647.7,680.2 1666.2,669.6 1672,660.6 						"/>
						<path id="Path-221_1_" class="st3" d="M1309.4,832.3l193.4-162.5l108.5-78.4l21.5-45.2c0,0,0-0.1,0.1-0.1l18.9-38.7
							c0-0.1,0.1-0.1,0.1-0.2l31-66.8"/>
						<path id="Path-222_1_" class="st3" d="M1347.5,848.3l30.2-31.2"/>
						<path id="Path-223_1_" class="st3" d="M1377.7,864.1l30.2-31.7"/>
						<path id="Path-224_1_" class="st3" d="M1384.8,769.6l64.2,73.8"/>
						<path id="Path-225_1_" class="st3" d="M1407.9,749.8l56.1,82.5"/>
						<path id="Path-226_1_" class="st3" d="M1428,732.3l63.3,74.2"/>
						<path id="Path-227_1_" class="st3" d="M1455.3,710.2l60.3,76.5"/>
						<path id="Path-228_1_" class="st3" d="M1481.4,687.9l64,73.4"/>
						<path id="Path-233_1_" class="st3" d="M1252.3,797.4l70.2-119.3c0.2-0.3,0.4-0.6,0.5-0.9l43-89.3c0.9-1.8,2.2-3.4,3.8-4.7
							l37.8-28.8c0.2-0.2,0.4-0.3,0.7-0.5l25.7-17.2c1.3-0.9,2.4-2,3.3-3.2l24.3-34c1.6-2.2,2.4-4.8,2.4-7.5v-8.5
							c0-2.2-0.6-4.4-1.7-6.4l-10-17.7c-2-3.5-5.8-5.7-9.8-5.7l0,0c-3.9,0-7.3,2.6-8.3,6.4l-6.6,24.3c-1.5,5.6-7.3,8.8-12.8,7.3
							c-0.5-0.1-1-0.3-1.5-0.6l-8.7-3.9c-1.6-0.7-3.1-1.8-4.3-3.1l-13.6-15c-4.8-5.3-4.4-13.5,0.9-18.3c0.1-0.1,0.2-0.2,0.3-0.3
							l36.5-31.2c0,0,0.1-0.1,0.1-0.1l34.9-29.2c2.9-2.5,4.6-6.1,4.6-9.9v-19.8"/>
						<path id="Path-253_1_" class="st3" d="M1179.5,759.3l32.5-45.5l52-99.5c0.1-0.2,0.2-0.4,0.3-0.6l38.6-84.3
							c0.3-0.6,0.5-1.1,0.9-1.6l30.9-48.2c0.2-0.3,0.4-0.6,0.6-0.9l26.9-51.1c0.6-1.1,1.4-2.2,2.3-3.1l31.2-31.4c2-2,5.3-2.1,7.4,0
							c1.7,1.7,2,4.4,0.8,6.5"/>
						<path id="Path-255_1_" class="st3" d="M1303.7,710.2l91.7,51.2"/>
						<path id="Path-256_1_" class="st3" d="M1288.3,737.1l81.5,49.6"/>
						<path id="Path-257_1_" class="st3" d="M1220.4,781.2l55.4-102c1.2-2.2,3-4,5.2-5.2l15.4-8.4c5.4-2.9,12.1-1.6,16.1,3l0.4,0.5
							c0.8,1,2.3,1.1,3.3,0.3c0.7-0.6,1-1.6,0.7-2.4l-12-40.2c-0.8-2.7-0.7-5.7,0.3-8.4l17.3-44.9c0.1-0.3,0.2-0.6,0.4-0.9
							l35.1-74.7c0-0.1,0.1-0.1,0.1-0.2l9.8-20.1c0,0,0,0,0,0s0,0,0,0"/>
						<path id="Path-295_1_" class="st3" d="M1766.6,804.5l-28.6-21.8c-2.6-1.9-3.1-5.6-1.1-8.2c0.1-0.1,0.1-0.2,0.2-0.3l2.1-2.4
							c1.3-1.5,2.9-2.7,4.8-3.5l10.7-4.5c1.1-0.5,2.1-1.1,3.1-1.8l56-44.7l24.8-3.7l11.5-35.6v-24.7"/>
						<polyline id="Path-298_1_" class="st3" points="1707.1,679.1 1605.4,749.8 1502.7,837.9 1435.9,896.8 						"/>
						<path id="Path-299_1_" class="st3" d="M1502.6,797.4l42.9,45.9"/>
						<path id="Path-300_1_" class="st3" d="M1614,854.2l52.1,52.4"/>
						<path id="Path-301_1_" class="st3" d="M1586.5,871.3l56.7,54.7"/>
						<path id="Path-302_1_" class="st3" d="M0,0"/>
						<path id="Path-303_1_" class="st3" d="M879.2,677.7l230.4,105.6"/>
						<path id="Path-306_1_" class="st3" d="M1061.9,647.5l-41.9,92.9"/>
						<path id="Path-307_1_" class="st3" d="M1092.5,660.5l-41.8,94.6"/>
						<path id="Path-312_1_" class="st3" d="M1082.4,1004.5l71.9,45"/>
						<path id="Path-313_1_" class="st3" d="M1104.2,986.8l69.2,41.7"/>
						<path id="Path-314_1_" class="st3" d="M1118.4,956.8l32.9,20.7"/>
						<polyline id="Path-315_1_" class="st3" points="1169.8,947.3 1138.8,932.1 1142.2,906.4 1179.6,926.8 						"/>
						<polyline id="Path-316_1_" class="st3" points="1204.1,895 1159.2,872.8 1142.7,887.3 1288.3,966.7 						"/>
						<path id="Path-317_1_" class="st3" d="M1297.6,1014.8l-37.1,34.6"/>
						<path id="Path-318_1_" class="st3" d="M1233.2,1014.8l33.9,31"/>
						<polyline id="Path-319_1_" class="st3" points="1271.2,993.4 1199.3,977.4 1167.2,966.7 						"/>
						<polyline id="Path-320_1_" class="st3" points="844.6,743.6 937.6,790.9 982.8,806.5 						"/>
						<path id="Path-321_1_" class="st3" d="M967.9,831.8l52-91.4"/>
						<polyline id="Path-322_1_" class="st3" points="861.4,722.5 973.4,775.1 964.3,797.4 						"/>
						<polyline id="Path-323_1_" class="st3" points="844.6,775.1 871.7,759.3 960.1,713.3 						"/>
						<path id="Path-324_1_" class="st3" d="M713.5,687.9l131.1,56.2"/>
						<path id="Path-329_1_" class="st3" d="M817.8,669.8l-35.5,77.8"/>
						<path id="Path-330_2_" class="st3" d="M441.8,618.6L591,863.2"/>
						<path id="Path-331_2_" class="st3" d="M407.3,639.6l141.4,237.9"/>
						<path id="Path-332_1_" class="st3" d="M591,806.5l35.2,49.4"/>
						<path id="Path-333_1_" class="st3" d="M608.6,783.3L668,850"/>
						<path id="Path-334_1_" class="st3" d="M638.3,752.4l73,82.2"/>
						<path id="Path-335_1_" class="st3" d="M655.6,728.8l62.3,64.7"/>
						<path id="Path-337_1_" class="st3" d="M995.2,989l-41.4-22.3"/>
						<path id="Path-338_1_" class="st3" d="M973.4,1027l-32-22.5"/>
						<polyline id="Path-339_1_" class="st3" points="1219.2,781.2 1198.4,820.5 1179.5,827.1 1167.2,808.2 1109.6,783.3 						"/>
						<polyline id="Path-340_1_" class="st3" points="1127,797.4 1159.2,761.9 1173.4,765.1 1173.4,786.7 1164.4,807.3 						"/>
						<path id="Path-341_1_" class="st3" d="M1192.8,768.9l-5.7,55"/>
						<path id="Path-342_1_" class="st3" d="M1230.9,836.3l-32.5-15.8"/>
						<path id="Path-343_1_" class="st3" d="M1331.3,880.6l-56.1-32.4"/>
						<path id="Path-353_1_" class="st3" d="M1204.4,759.7l6-8c1-1.3,1.7-2.7,2.1-4.3l5.2-18.1c0.9-3.2,3-5.9,5.9-7.6l28.5-16.8
							c3.6-2.1,5.9-5.8,6.3-9.9l2.4-25.1c0.2-2.6,1.3-5.1,3-7.1l12.4-14.8c0.9-1.1,1.6-2.3,2.1-3.5l9.8-24.8
							c0.1-0.2,0.1-0.3,0.2-0.5l15.2-33.9c0-0.1,0-0.1,0.1-0.2l12.3-28.6c0-0.1,0.1-0.1,0.1-0.2l12.7-28.2c0.2-0.4,0.4-0.8,0.6-1.2
							l13-22.3c0.1-0.1,0.1-0.2,0.2-0.3l14.9-24c0.4-0.7,0.9-1.3,1.5-1.9l18.9-20.6"/>
						<path id="Path-355" class="st3" d="M1154.4,692.1l-20.9,45"/>
						<path id="Path-360_2_" class="st3" d="M285.7,58.5l7.7,40.7c0.1,0.6,0.2,1.1,0.2,1.7l3.6,67.5c0.1,2.5,1,4.9,2.4,6.9
							l39.6,54.9c0.9,1.3,2.1,2.4,3.4,3.3l118.4,77.1c0.1,0.1,0.2,0.1,0.3,0.2l107.3,73.9c0.2,0.1,0.4,0.3,0.6,0.4l58.4,45.1
							l82.1,74.1c0.8,0.7,1.4,1.5,2,2.3l67.2,98.6l39.2,51.7l45.8,51.9l79.1,42.7l164,76l168,82.4l139.3,102l74.4,73.6"/>
						<path id="Path-360-Copy_2_" class="st3" d="M281.3,3.6l14.6,77.6c0.1,0.6,0.2,1.1,0.2,1.7l3.6,67.5c0.1,2.5,1,4.9,2.4,6.9
							l39.6,54.9c0.9,1.3,2.1,2.4,3.4,3.3l118.4,77.1c0.1,0.1,0.2,0.1,0.3,0.2l107.3,73.9c0.2,0.1,0.4,0.3,0.6,0.4l58.4,45.1
							l82.1,74.1c0.8,0.7,1.4,1.5,2,2.3l67.2,98.6l39.2,51.7l45.8,51.9l79.1,42.7l163.9,76c0.1,0,0.2,0.1,0.3,0.1l166.9,81.8
							c0.7,0.3,1.3,0.7,1.9,1.2l137.6,100.7c0.5,0.4,1,0.8,1.5,1.2l73.7,72.9"/>
						<path id="Path-375_1_" class="st3" d="M1006.4,781.2L975.6,846c-0.7,1.4-1.1,2.9-1.2,4.4l-5.4,60.2
							c-0.6,6.3,3.6,12.2,9.8,13.7l31,7.7c3.9,1,8,0.1,11.2-2.4l12.6-10c2-1.6,3.4-3.6,4.2-6l19.6-58.1c0.8-2.4,0.9-5,0.3-7.4
							l-12.8-48.8L1006.4,781.2z"/>
						<path id="Path-184_1_" class="st3" d="M960.7,1049.5l48.6-86.8c3.3-5.9,10.6-8.3,16.8-5.4l31.3,14.6c6.5,3,14.2,0.2,17.2-6.2
							c0,0,0,0,0,0l85.5-184c2-4.2,0.1-9.2-4.1-11.2c-3.8-1.7-8.2-0.5-10.5,2.9"/>
						<polyline id="Path-190_1_" class="st3" points="743.7,876.1 842.4,986.6 901.2,1003.4 945.6,1049.5 						"/>
						<path id="Path-14_1_" class="st3" d="M154.7,978.5l64-39c2-1.2,4.6-0.6,5.8,1.4c0,0,0,0,0,0l35,58.9c0.3,0.5,0.6,0.9,0.9,1.3
							l52.8,59.4"/>
					</g>
				</g>
			</g>
		</g>
	</g>
</g>
</svg>
